@startuml
!define AWSPuml https://raw.githubusercontent.com/awslabs/aws-icons-for-plantuml/v15.0/dist
!include AWSPuml/AWSCommon.puml
!include AWSPuml/Compute/all.puml
!include AWSPuml/Containers/all.puml
!include AWSPuml/Database/all.puml
!include AWSPuml/DeveloperTools/all.puml
!include AWSPuml/SecurityIdentityCompliance/all.puml
!include AWSPuml/Serverless/all.puml
!include AWSPuml/Storage/all.puml
!include AWSPuml/General/all.puml
top to bottom direction
skinparam linetype polyline

package "System" {
  [Event Service]
  queue eventQueue
  [User Service]
  [Security Service]
  [Financial Alerts]
  [KYC]
  [Deposit Service]
  [Transfer Service]
  [Online Bill Pay]
  [Transfers Inbound Event Processor]
  queue inboundTransferQueue
  database coreDB
  [Backoffice Service]
  [Card Service]
  queue cardTransactionsQueue
  [Document Service]
  [Analytics and Reporting]
  [Risk Management]
  [Account Management Service]
  [API Gateway]

  [API Gateway] -- [Event Service]
  [API Gateway] -- [Financial Alerts]
  [API Gateway] -- [Deposit Service]
  [API Gateway] -- [Online Bill Pay]
  [API Gateway] -- [Backoffice Service]
  [API Gateway] -- [Document Service]
  [API Gateway] -- [Analytics and Reporting]
  [Event Service] -- eventQueue
  [User Service] -- [Security Service]
  [User Service] -- [KYC]
  [Analytics and Reporting] -- [Account Management Service]
  [KYC] -- eventQueue
  [Transfers Inbound Event Processor] -- inboundTransferQueue
  [Card Service] -- cardTransactionsQueue
  [Event Service] -- coreDB
  [Financial Alerts] -- coreDB
  [Deposit Service] -- coreDB
  [Online Bill Pay] -- coreDB
  [Backoffice Service] -- coreDB
  [Analytics and Reporting] -- coreDB
  [Document Service] -- coreDB
  [Risk Management] -- coreDB
  [Transfer Service] -- eventQueue
  coreDB -- [Transfer Service]
  coreDB -- [Account Management Service]
  coreDB -- [Transfers Inbound Event Processor]
  coreDB -- [Card Service]
  eventQueue -- coreDB
}

rectangle Webclient
rectangle MobileClient
rectangle BackofficeClient
rectangle PaymentProcessor
rectangle KYCProvider
rectangle CardIssuingService
rectangle PartnerBank

Webclient -- [API Gateway]
MobileClient -- [API Gateway]
BackofficeClient -- [API Gateway]

[KYC] -- KYCProvider
[Card Service] -- CardIssuingService
cardTransactionsQueue -[hidden]- CardIssuingService
[Account Management Service] -- PartnerBank
@enduml